[{
        "title": "Hotel Del Luna",
        "synopsis": "When he's invited to manage a hotel for dead souls, an elite hotelier gets to know the establishment's ancient owner and her strange world.",
        "trailer": "https://www.youtube.com/watch?v=49vaoYhsvCs",
        "poster": "https://6.viki.io/image/71b74f6516044d7fb31e85981b0466ab.jpeg?s=900x600&e=t",
        "genre": "Romance",
        "releaseDate": "2019-07-13",
        "director": "Oh Choong-hwan",
        "featuredSong": "Love Del Luna ",
        "budget": 18000000
    },
    {
        "title": "James Bond - Spectre",
        "synopsis": "A cryptic message from James Bond's past sends him on a trail to uncover the existence of a sinister organisation named SPECTRE. With a new threat dawning, Bond learns the terrible truth about the author of all his pain in his most recent missions. ",
        "trailer": "https://www.youtube.com/watch?v=7GqClqvlObY",
        "poster": "https://images-na.ssl-images-amazon.com/images/I/61X47xxzykL._AC_SY741_.jpg",
        "genre": "Action",
        "releaseDate": "2015-10-26",
        "director": "Sam Mendes",
        "featuredSong": "Sam Smith-Writing's on the Wall",
        "budget": 245000000
    },
    {
        "title": "Mission: Impossible - Fallout",
        "synopsis": "Ethan Hunt and his IMF team, along with some familiar allies, race against time after a mission gone wrong.",
        "trailer": "https://www.youtube.com/watch?v=wb49-oV0F78",
        "poster": "https://upload.wikimedia.org/wikipedia/id/0/0e/MissionImpossibleFalloutPoster.jpg",
        "genre": "Action",
        "releaseDate": "2018-07-25",
        "director": "Christopher McQuarrie",
        "featuredSong": "Lorne Balfe - A Storm Is Coming",
        "budget": 178000000
    }, {
        "title": "Justice League",
        "synopsis": "Fueled by his restored faith in humanity and inspired by Superman's selfless act, Bruce Wayne enlists the help of his new-found ally, Diana Prince, to face an even greater enemy.",
        "trailer": "https://www.youtube.com/watch?v=r9-DM9uBtVI",
        "poster": "https://i.redd.it/u8qd9j7s6fty.jpg",
        "genre": "Action",
        "releaseDate": "2017-11-05",
        "director": "Zack Snyder",
        "featuredSong": "Sigrid - Everybody Knows ",
        "budget": 300000000
    }, {
        "title": "Fast & Furious 7",
        "synopsis": "Deckard Shaw seeks revenge against Dominic Toretto and his family for his comatose brother.",
        "trailer": "https://www.youtube.com/watch?v=Skpu5HaVkOc",
        "poster": "https://4.bp.blogspot.com/--Tv_dTosMUA/VSWKPJa2zZI/AAAAAAAAAFY/LtNvbqdgtNY/s1600/Fast-and-Furious-7-Poster.jpg",
        "genre": "Action",
        "releaseDate": "2015-04-01",
        "director": "James Wan",
        "featuredSong": "Ride Out [Explicit]",
        "budget": 190000000
    }, {
        "title": "Jumanji: Welcome to the Jungle",
        "synopsis": "Four teenagers are sucked into a magical video game, and the only way they can escape is to work together to finish the game. ",
        "trailer": "https://www.youtube.com/watch?v=2QKg5SZ_35I",
        "poster": "https://ecs7.tokopedia.net/img/cache/700/product-1/2018/2/7/1937770/1937770_e4ee7ff9-8776-457f-b08f-8c8663f401e8.jpg",
        "genre": "Comedy",
        "releaseDate": "2017-12-20",
        "director": "Jake Kasdan",
        "featuredSong": "Welcome to the Jungle ",
        "budget": 150000000
    }, {
        "title": "Jumanji: The Next Level",
        "synopsis": "In Jumanji: The Next Level, the gang is back but the game has changed. As they return to rescue one of their own, the players will have to brave parts unknown from arid deserts to snowy mountains, to escape the world's most dangerous game.",
        "trailer": "https://www.youtube.com/watch?v=rBxcF-r9Ibs",
        "poster": "https://cdn1-production-images-kly.akamaized.net/nNL4eIhQ0t9JXnn6uOs-VDdqMUo=/640x853/smart/filters:quality(75):strip_icc():format(jpeg)/kly-media-production/medias/2987058/original/063431000_1575520560-Jumanji_The_Next_Level_Poster_21.jpg",
        "genre": "Comedy",
        "releaseDate": "2019-12-04",
        "director": "Jake Kasdan",
        "featuredSong": "It's All In The Game",
        "budget": 132000000
    }, {
        "title": "Insidious",
        "synopsis": "A family looks to prevent evil spirits from trapping their comatose child in a realm called The Further. ",
        "trailer": "https://www.youtube.com/watch?v=zuZnRUcoWos",
        "poster": "https://mmc.tirto.id/image/otf/880x495/2019/01/24/insidious-1-imdb_ratio-16x9.jpg",
        "genre": "Horror",
        "releaseDate": "2011-06-04",
        "director": "James Wan",
        "featuredSong": "Nuvole Bianche",
        "budget": 1500000
    }, {
        "title": "Twilight",
        "synopsis": "Bella Swan moves to Forks and encounters Edward Cullen, a gorgeous boy with a secret.",
        "trailer": "https://www.youtube.com/watch?v=uxjNDE2fMjI",
        "poster": "https://i.pinimg.com/originals/a6/4c/94/a64c94dec5a24b6dd9336304f34b4270.jpg",
        "genre": "Romance",
        "releaseDate": "2008-12-03",
        "director": "Catherine Hardwicke",
        "featuredSong": "Decode",
        "budget": 37000000
    }, {
        "title": "A Star Is Born",
        "synopsis": "A musician helps a young singer find fame as age and alcoholism send his own career into a downward spiral.",
        "trailer": "https://www.youtube.com/watch?v=nSbzyEJ8X9E",
        "poster": "https://www.therip.com/wp-content/uploads/2018/10/a-star-is-born-572x900.jpg",
        "genre": "Romance",
        "releaseDate": "2018-10-19",
        "director": "Bradley Cooper",
        "featuredSong": "Shallow",
        "budget": 36000000
    }, {
        "title": "Bucin",
        "synopsis": "Four young men - each with their own love issues - enrol in an ‘anti-whipped’ class to break free from being enslaved by love.",
        "trailer": "https://www.youtube.com/watch?v=VuxWz-cajnY",
        "poster": "https://www.layar.id/wp-content/uploads/2020/02/official-poster-Bucin-1.jpg",
        "genre": "Comedy",
        "releaseDate": "2020-09-18",
        "director": "Chandra Liow",
        "featuredSong": "Bucin",
        "budget": 700000
    }, {
        "title": "Avengers: Endgame",
        "synopsis": "After the devastating events of Avengers: Infinity War (2018), the universe is in ruins. With the help of remaining allies, the Avengers assemble once more in order to reverse Thanos' actions and restore balance to the universe.",
        "trailer": "https://www.youtube.com/watch?v=TcMBFSGVi1c",
        "poster": "https://images-na.ssl-images-amazon.com/images/I/71Z5Pu7K7bL._AC_SL1000_.jpg",
        "genre": "Action",
        "releaseDate": "2019-04-24",
        "director": "Anthony Russo, Joe Russo",
        "featuredSong": "Supersonic Rocket Ship",
        "budget": 356000000
    }, {
        "title": "Men in Black: International",
        "synopsis": "The Men in Black have always protected the Earth from the scum of the universe. In this new adventure, they tackle their biggest threat to date: a mole in the Men in Black organization.",
        "trailer": "https://www.youtube.com/watch?v=BV-WEb2oxLk",
        "poster": "https://images-na.ssl-images-amazon.com/images/I/71ybER1ncVL._AC_SL1500_.jpg",
        "genre": "Comedy",
        "releaseDate": "2019-06-19",
        "director": "F. Gary Gray",
        "featuredSong": "Sex Shooter ",
        "budget": 110000000
    }, {
        "title": "Toy Story 4",
        "synopsis": "When a new toy called 'Forky' joins Woody and the gang, a road trip alongside old and new friends reveals how big the world can be for a toy.",
        "trailer": "https://www.youtube.com/watch?v=wmiIUN-7qhE",
        "poster": "https://images-na.ssl-images-amazon.com/images/I/714hR8KCqaL._AC_SL1308_.jpg",
        "genre": "Animation",
        "releaseDate": "2019-06-21",
        "director": "Josh Cooley",
        "featuredSong": "Boogie Juice (uncredited) (aka 'San Francisco Beat')",
        "budget": 200000000
    }, {
        "title": "The Mummy",
        "synopsis": "An ancient Egyptian princess is awakened from her crypt beneath the desert, bringing with her malevolence grown over millennia, and terrors that defy human comprehension.",
        "trailer": "https://www.youtube.com/watch?v=IjHgzkQM2Sg",
        "poster": "https://lh3.googleusercontent.com/proxy/K1Qru2HkOSUYrkn9CPNYXT-avNXC4HzXpkpEchTDsqyjaWbBxlqgMS2D-3h4adCMU2LQ5Wb821MmEk8H3i3mNwlh6UxbWMI",
        "genre": "Horror",
        "releaseDate": "2017-07-07",
        "director": "Alex Kurtzman",
        "featuredSong": "Bang Bang You're Dead ",
        "budget": 195000000
    }, {
        "title": "Ralph Breaks the Internet",
        "synopsis": "Six years after the events of 'Wreck - It Ralph,' Ralph and Vanellope, now friends, discover a wi - fi router in their arcade, leading them into a new adventure.",
        "trailer": "https://www.youtube.com/watch?v=_BcYBFC6zfY",
        "poster": "https://ecs7.tokopedia.net/img/cache/700/product-1/2018/12/10/31946973/31946973_fb20458f-1405-4c46-84f7-085bd6c52f1e_500_714",
        "genre": "Animation",
        "releaseDate": "2018-11-23",
        "director": "Phil Johnston, Rich Moore",
        "featuredSong": "Let It Go (Demi Lovato Version)",
        "budget": 175000000
    }
]